{
	"info": {
		"_postman_id": "88a1c4fd-2a26-4fc1-ba97-8777fcb53461",
		"name": "FARO Scanner",
		"schema": "https://schema.getpostman.com/json/collection/v2.1.0/collection.json"
	},
	"item": [
		{
			"name": "Start scanning",
			"request": {
				"method": "POST",
				"header": [],
				"body": {
					"mode": "raw",
					"raw": "{\n\t\"ip\": \"192.168.1.128\"\n}"
				},
				"url": {
					"raw": "0.0.0.0:8000/start-scan",
					"host": [
						"0",
						"0",
						"0",
						"0"
					],
					"port": "8000",
					"path": [
						"start-scan"
					]
				}
			},
			"response": []
		},
		{
			"name": "Scanning status",
			"protocolProfileBehavior": {
				"disableBodyPruning": true
			},
			"request": {
				"method": "GET",
				"header": [],
				"body": {
					"mode": "raw",
					"raw": "{\n\t\"ip\" : \"192.168.1.128\",\n\t\"filename\" : \"egnatia_1664364888.5361457_001\"\n}",
					"options": {
						"raw": {
							"language": "json"
						}
					}
				},
				"url": {
					"raw": "0.0.0.0:8000/scan-status",
					"host": [
						"0",
						"0",
						"0",
						"0"
					],
					"port": "8000",
					"path": [
						"scan-status"
					]
				}
			},
			"response": []
		},
		{
			"name": "Stop scanning",
			"protocolProfileBehavior": {
				"disableBodyPruning": true
			},
			"request": {
				"method": "GET",
				"header": [],
				"body": {
					"mode": "raw",
					"raw": "{\n\t\"ip\" : \"192.168.1.128\",\n\t\"filename\" : \"egnatia_1663772957.1706107_001\",\n\t\"session_id\" : \"JA5149IMC6QJAZPXM\",\n\t\"keep_file\" : \"False\"\n}",
					"options": {
						"raw": {
							"language": "json"
						}
					}
				},
				"url": {
					"raw": "0.0.0.0:8000/stop-scan",
					"host": [
						"0",
						"0",
						"0",
						"0"
					],
					"port": "8000",
					"path": [
						"stop-scan"
					]
				}
			},
			"response": []
		},
		{
			"name": "Get metadata",
			"request": {
				"method": "GET",
				"header": []
			},
			"response": []
		}
	]
}